%YAML 1.1
%TAG !u! tag:unity3d.com,2011:
--- !u!114 &11400000
MonoBehaviour:
  m_ObjectHideFlags: 0
  m_PrefabParentObject: {fileID: 0}
  m_PrefabInternal: {fileID: 0}
  m_GameObject: {fileID: 0}
  m_Enabled: 1
  m_EditorHideFlags: 0
  m_Script: {fileID: 11500000, guid: 9692beea91a2a9642a1187651099f214, type: 3}
  m_Name: Level33
  m_EditorClassIdentifier: 
  Lanes: 6
  Shapes: 5
  Colors: 5
  Speed: 6
  DropSpeed: 7
  Total: 35
