%YAML 1.1
%TAG !u! tag:unity3d.com,2011:
--- !u!114 &11400000
MonoBehaviour:
  m_ObjectHideFlags: 0
  m_PrefabParentObject: {fileID: 0}
  m_PrefabInternal: {fileID: 0}
  m_GameObject: {fileID: 0}
  m_Enabled: 1
  m_EditorHideFlags: 0
  m_Script: {fileID: 11500000, guid: be36a1bec09592747a1aa94236b537b2, type: 3}
  m_Name: GuiSprites
  m_EditorClassIdentifier: 
  _data:
  - SpriteName: Cursor
    Sprites:
    - {fileID: 21300002, guid: 2d60a61f5a7dcc74aac9707cc9e0dad4, type: 3}
  PackageName: 
